Git Practice with RStudio
…
NA == NA

NA^FALSE | NA^TRUE

NA^FALSE & NA^TRUE

Filter vs [ ]

We learned in week 1 and 2 to subset a vector or data frame using [ ]. This is very similar to filter, but the syntax is different. For instance, to select the flights which traveled the maximum distance, we could use:

maxdist <- max(flights$distance, na.rm = TRUE)

flights[flights$distance == maxdist,]

## # A tibble: 342 x 19
##     year month   day dep_time sched_dep_time dep_delay arr_time
##    <int> <int> <int>    <int>          <int>     <dbl>    <int>
##  1  2013     1     1      857            900        -3     1516
##  2  2013     1     2      909            900         9     1525
##  3  2013     1     3      914            900        14     1504
##  4  2013     1     4      900            900         0     1516
##  5  2013     1     5      858            900        -2     1519
##  6  2013     1     6     1019            900        79     1558
##  7  2013     1     7     1042            900       102     1620
##  8  2013     1     8      901            900         1     1504
##  9  2013     1     9      641            900      1301     1242
## 10  2013     1    10      859            900        -1     1449
## #  with 332 more rows, and 12 more variables: sched_arr_time <int>,
## #   arr_delay <dbl>, carrier <chr>, flight <int>, tailnum <chr>,
## #   origin <chr>, dest <chr>, air_time <dbl>, distance <dbl>, hour <dbl>,
## #   minute <dbl>, time_hour <dttm>
…
